[6] time: 680.6 s
m0: 
00 00 00 00 00 00 00 00 00 00 a0 2b a3 02 f7 48 
f1 3f ce aa 42 88 b7 c4 73 35 8c 8c 47 2c f4 e9 
55 6d 34 06 06 22 73 a3 ef c0 aa 90 48 7b b9 a6 
bd 2c 2d 9f fb a6 aa 1e de 2b 23 aa c4 5f e4 7b 
m0':
00 00 00 00 00 00 00 00 00 00 a0 2b a3 02 f7 48 
f1 3f ce 2a 42 88 b7 c4 73 35 8c 8c 47 2c f4 e9 
55 6d 34 06 06 22 73 a3 ef c0 aa 90 48 fb b9 a6 
bd 2c 2d 9f fb a6 aa 1e de 2b 23 2a c4 5f e4 7b 


m1: 
e2 15 a8 f3 08 ae a9 2c b3 72 d5 1b 6a 49 de 9e  
14 77 19 16 f6 a5 ff 1b e8 fc a4 76 d1 1b dd de 
fd 9e 3b 87 4f 74 cf 88 62 00 7a 74 a0 40 2d be 
12 4d 59 7b 9a 97 a3 df f5 7a 7a 30 21 9b 0a 64 
m1':
e2 15 a8 f3 08 ae a9 2c b3 72 d5 1b 6a 49 de 9e 
14 77 19 96 f6 a5 ff 1b e8 fc a4 76 d1 1b dd de 
fd 9e 3b 87 4f 74 cf 88 62 00 7a 74 a0 c0 2c be 
12 4d 59 7b 9a 97 a3 df f5 7a 7a b0 21 9b 0a 64 

h1: 
27f687621ee95ffdf587d00dfb637ed2 
27f687621ee95ffdf587d00dfb637ed2



[7]time: 264.6 s
m0: 
00 00 00 00 00 00 00 00 00 00 e0 55 2f 0f f5 48 
4e 3e 4c 9f be 33 b9 bd ed 9f 8d c8 c2 d7 35 25 
55 6d 34 05 05 4e d4 00 0b da 70 7b 57 f9 72 d5 
00 95 ab 08 df c9 49 b8 9e e5 44 01 10 c3 23 65 
m0':
00 00 00 00 00 00 00 00 00 00 e0 55 2f 0f f5 48 
4e 3e 4c 1f be 33 b9 bd ed 9f 8d c8 c2 d7 35 25 
55 6d 34 05 05 4e d4 00 0b da 70 7b 57 79 73 d5 
00 95 ab 08 df c9 49 b8 9e e5 44 81 10 c3 23 65 

h0:  4a923f7f 10d5a25e 7b7b6048 10791570
h0': ca923f7f 92d5a25e fd7b6048 92791570 

m1: 
a4 15 32 17 ee 5c 48 8c c0 f3 39 a9 8b ae 19 d5 
53 93 e9 a6 77 ce 81 eb 0c ad d9 44 53 1d fd fd 
ad 87 b3 80 de ce 22 8e 82 26 b5 93 87 10 0a 04 
b8 00 29 91 5f a0 03 a9 ab 0a 6b 56 a1 70 45 fe 
m1':
a4 15 32 17 ee 5c 48 8c c0 f3 39 a9 8b ae 19 d5  
53 93 e9 26 77 ce 81 eb 0c ad d9 44 53 1d fd fd 
ad 87 b3 80 de ce 22 8e 82 26 b5 93 87 90 09 04 
b8 00 29 91 5f a0 03 a9 ab 0a 6b d6 a1 70 45 fe 

h1: 
edf90bfab0f3496117e25a6048c1cdd5
edf90bfab0f3496117e25a6048c1cdd5

[8]time: 592.0 s
m0: 
00 00 00 00 00 00 00 00 00 00 60 db 73 4a f7 48 
2c 21 26 c7 c2 28 b8 bc 69 96 8c b8 bd cc 34 16 
d5 2c 35 06 05 70 14 e2 bb 9d 5c 78 ab 57 02 14 
c4 18 ab d7 de 0d e0 2d d2 a9 3c 87 43 e8 5d 72 
m0':
00 00 00 00 00 00 00 00 00 00 60 db 73 4a f7 48 
2c 21 26 47 c2 28 b8 bc 69 96 8c b8 bd cc 34 16 
d5 2c 35 06 05 70 14 e2 bb 9d 5c 78 ab d7 02 14 
c4 18 ab d7 de 0d e0 2d d2 a9 3c 07 43 e8 5d 72 

h0:  21dfe1d9 50c6c258 225a0667 2594dbe7
h0': a1dfe1d9 d2c6c258 a45a0667 a794dbe7 

m1; 
24 21 ab 36 5a 9c 41 80 c9 79 29 3a 0d 42 ad 87 
92 17 6e 98 2e f1 48 de 12 6d 3c 75 51 7e c4 ae 
4d 67 36 8f f6 74 9d 46 12 6a 5d aa 80 04 01 1c 
af f8 6d ab c0 e6 0b 42 b0 c3 92 f8 60 a9 84 82 
m1':
24 21 ab 36 5a 9c 41 80 c9 79 29 3a 0d 42 ad 87 
92 17 6e 18 2e f1 48 de 12 6d 3c 75 51 7e c4 ae 
4d 67 36 8f f6 74 9d 46 12 6a 5d aa 80 84 00 1c 
af f8 6d ab c0 e6 0b 42 b0 c3 92 78 60 a9 84 82 

h1: 
de58a6db2d75a5d05c2faad167cf3a96
de58a6db2d75a5d05c2faad167cf3a96


[9] time: 434.0 s
m0: 
00 00 00 00 00 00 00 00 00 00 a0 aa 97 fd f6 48 
f5 41 54 af 43 8a b8 c4 73 39 8d cd 49 2e f5 2c 
d5 ec 33 06 06 32 74 81 ff b9 7a 83 86 f1 71 17 
0d 6d 51 42 ed d3 7e 68 d6 bb 7f dd 80 ab cb b1 
m0':
00 00 00 00 00 00 00 00 00 00 a0 aa 97 fd f6 48 
f5 41 54 2f 43 8a b8 c4 73 39 8d cd 49 2e f5 2c 
d5 ec 33 06 06 32 74 81 ff b9 7a 83 86 71 72 17 
0d 6d 51 42 ed d3 7e 68 d6 bb 7f 5d 80 ab cb b1 

m1: 
32 cc 2d d0 9c 10 4a 32 66 29 ea 3e 67 bc 35 2c 
b1 52 04 46 24 ca 37 4d 2c 65 2a 75 53 e8 71 a0 
fd 67 73 54 7d 7a 19 cd 36 14 46 c5 4d b4 36 33 
d8 40 df 5a 35 b3 03 65 40 9a 5a 8d 27 d6 ab ce
m1':
32 cc 2d d0 9c 10 4a 32 66 29 ea 3e 67 bc 35 2c 
b1 52 04 c6 24 ca 37 4d 2c 65 2a 75 53 e8 71 a0 
fd 67 73 54 7d 7a 19 cd 36 14 46 c5 4d 34 36 33 
d8 40 df 5a 35 b3 03 65 40 9a 5a 0d 27 d6 ab ce 

h1: 
b39188a68cfdd8b1460cac7b7ae23a86  
b39188a68cfdd8b1460cac7b7ae23a86


[10] time: 227.2 s
m0: 
00 00 00 00 00 00 00 00 00 00 a0 f4 3b 6f f7 48 
cb bc 83 d0 3e f6 b7 bc f5 a4 8c 64 49 9a f4 c1 
d5 ad 33 05 06 be b4 01 13 b7 aa 75 f4 a4 71 93 
f3 0c d4 7a 38 18 0e 19 e7 23 4a c3 43 6a 53 04 
m0':
00 00 00 00 00 00 00 00 00 00 a0 f4 3b 6f f7 48 
cb bc 83 50 3e f6 b7 bc f5 a4 8c 64 49 9a f4 c1 
d5 ad 33 05 06 be b4 01 13 b7 aa 75 f4 24 72 93 
f3 0c d4 7a 38 18 0e 19 e7 23 4a 43 43 6a 53 04 

m1: 
3f 9f c0 03 d2 08 82 0e 3b 68 c0 23 f5 e1 d2 0b  
5c fc ae 47 8d 9e 47 4e 44 7d 33 57 4e 7b 39 9e 
9d 7f bb 7f 36 d1 19 aa 32 40 eb 64 7f 60 af fc 
d6 74 f9 d9 83 de 0b d8 df 36 11 18 42 a1 95 ab 
m1':
3f 9f c0 03 d2 08 82 0e 3b 68 c0 23 f5 e1 d2 0b 
5c fc ae c7 8d 9e 47 4e 44 7d 33 57 4e 7b 39 9e 
9d 7f bb 7f 36 d1 19 aa 32 40 eb 64 7f e0 ae fc 
d6 74 f9 d9 83 de 0b d8 df 36 11 98 42 a1 95 ab 

h1: 
4699e1b0af9fb2896241ddd8eeea60d6
4699e1b0af9fb2896241ddd8eeea60d6